ghost,vampire,skeleton,zombie
10.8,29.2,-9.15,37.0
9.76,22.9,-5.11,31.5
9.33,25.7,-6.22,36.0
5.02,8.58,4.74,15.9
6.77,15.2,1.86,21.7
10.5,23.9,-7.51,30.6
13.4,32.8,-12.1,39.4
7.01,17.0,-0.658,24.7
13.6,33.5,-14.5,44.6
13.2,34.3,-14.0,47.4
2.85,4.44,8.76,7.61
3.62,5.16,7.88,9.31
10.7,26.8,-9.94,35.7
10.1,24.5,-5.62,31.4
2.88,3.87,8.51,8.71
13.5,34.4,-14.9,45.5
2.91,5.42,8.16,9.83
7.29,16.1,0.392,22.6
2.75,3.58,9.25,8.69
3.29,4.94,8.64,10.1
13.2,34.3,-14.3,43.8
3.37,5.98,8.53,9.75
8.39,18.9,-2.96,25.3
3.21,6.27,7.63,10.8
4.66,8.99,4.6,15.7
10.7,22.7,-6.26,32.7
13.5,38.1,-14.2,44.5
4.78,9.35,4.61,15.3
9.84,26.1,-6.23,36.4
