Enterprise,Bounty,Excelsior,Grissom,Reliant
6.54,15.5,0.407,21.0,34.4
11.8,31.9,-9.38,36.1,76.8
10.6,23.7,-7.8,37.8,60.8
6.48,15.8,-0.412,22.4,36.3
6.35,15.6,0.705,20.7,36.5
7.41,17.9,-2.79,29.3,44.5
7.32,16.3,0.0862,21.5,39.2
8.9,25.0,-5.34,30.4,52.8
10.7,34.0,-11.4,39.3,71.9
9.98,25.9,-7.36,30.7,65.0
10.8,30.6,-11.9,43.2,84.2
9.16,21.2,-3.58,28.9,54.6
7.91,20.8,-2.38,29.3,44.4
9.01,25.0,-5.9,34.9,65.5
6.29,16.3,0.31,21.2,37.7
2.5,3.7,10.3,7.59,4.08
7.93,22.1,-4.42,27.0,54.1
7.57,20.4,-1.89,28.6,41.6
7.96,19.4,-2.5,26.7,42.6
8.99,22.0,-4.88,27.8,49.4
9.6,27.2,-8.23,38.2,76.3
